^C:\USERS\BYRON\DOCUMENTS\VISUAL STUDIO 2013\PROJECTS\SPIKE 13\SPIKE10\DEBUG\BLACKBOARD.OBJ|C:\USERS\BYRON\DOCUMENTS\VISUAL STUDIO 2013\PROJECTS\SPIKE 13\SPIKE10\DEBUG\CARRYCOMPONENT.OBJ|C:\USERS\BYRON\DOCUMENTS\VISUAL STUDIO 2013\PROJECTS\SPIKE 13\SPIKE10\DEBUG\COMMAND.OBJ|C:\USERS\BYRON\DOCUMENTS\VISUAL STUDIO 2013\PROJECTS\SPIKE 13\SPIKE10\DEBUG\COMMANDPROCESSOR.OBJ|C:\USERS\BYRON\DOCUMENTS\VISUAL STUDIO 2013\PROJECTS\SPIKE 13\SPIKE10\DEBUG\COMPONENT.OBJ|C:\USERS\BYRON\DOCUMENTS\VISUAL STUDIO 2013\PROJECTS\SPIKE 13\SPIKE10\DEBUG\COMPONENTLOADER.OBJ|C:\USERS\BYRON\DOCUMENTS\VISUAL STUDIO 2013\PROJECTS\SPIKE 13\SPIKE10\DEBUG\CONTEXTCONTROLLER.OBJ|C:\USERS\BYRON\DOCUMENTS\VISUAL STUDIO 2013\PROJECTS\SPIKE 13\SPIKE10\DEBUG\EDGE.OBJ|C:\USERS\BYRON\DOCUMENTS\VISUAL STUDIO 2013\PROJECTS\SPIKE 13\SPIKE10\DEBUG\ENTITY.OBJ|C:\USERS\BYRON\DOCUMENTS\VISUAL STUDIO 2013\PROJECTS\SPIKE 13\SPIKE10\DEBUG\FAILEDCOMMAND.OBJ|C:\USERS\BYRON\DOCUMENTS\VISUAL STUDIO 2013\PROJECTS\SPIKE 13\SPIKE10\DEBUG\GAMEDATA.OBJ|C:\USERS\BYRON\DOCUMENTS\VISUAL STUDIO 2013\PROJECTS\SPIKE 13\SPIKE10\DEBUG\GAMEMAIN.OBJ|C:\USERS\BYRON\DOCUMENTS\VISUAL STUDIO 2013\PROJECTS\SPIKE 13\SPIKE10\DEBUG\GAMEPLAYSTATE.OBJ|C:\USERS\BYRON\DOCUMENTS\VISUAL STUDIO 2013\PROJECTS\SPIKE 13\SPIKE10\DEBUG\GOCOMMAND.OBJ|C:\USERS\BYRON\DOCUMENTS\VISUAL STUDIO 2013\PROJECTS\SPIKE 13\SPIKE10\DEBUG\HIGHSCORESTATE.OBJ|C:\USERS\BYRON\DOCUMENTS\VISUAL STUDIO 2013\PROJECTS\SPIKE 13\SPIKE10\DEBUG\INFORMATIONSTATE.OBJ|C:\USERS\BYRON\DOCUMENTS\VISUAL STUDIO 2013\PROJECTS\SPIKE 13\SPIKE10\DEBUG\INVENTORYCOMPONENT.OBJ|C:\USERS\BYRON\DOCUMENTS\VISUAL STUDIO 2013\PROJECTS\SPIKE 13\SPIKE10\DEBUG\IOBJECT.OBJ|C:\USERS\BYRON\DOCUMENTS\VISUAL STUDIO 2013\PROJECTS\SPIKE 13\SPIKE10\DEBUG\LOADER.OBJ|C:\USERS\BYRON\DOCUMENTS\VISUAL STUDIO 2013\PROJECTS\SPIKE 13\SPIKE10\DEBUG\LOCATION.OBJ|C:\USERS\BYRON\DOCUMENTS\VISUAL STUDIO 2013\PROJECTS\SPIKE 13\SPIKE10\DEBUG\LOCKCOMPONENT.OBJ|C:\USERS\BYRON\DOCUMENTS\VISUAL STUDIO 2013\PROJECTS\SPIKE 13\SPIKE10\DEBUG\LOOKCOMMAND.OBJ|C:\USERS\BYRON\DOCUMENTS\VISUAL STUDIO 2013\PROJECTS\SPIKE 13\SPIKE10\DEBUG\MAIN.OBJ|C:\USERS\BYRON\DOCUMENTS\VISUAL STUDIO 2013\PROJECTS\SPIKE 13\SPIKE10\DEBUG\MAINMENUSTATE.OBJ|C:\USERS\BYRON\DOCUMENTS\VISUAL STUDIO 2013\PROJECTS\SPIKE 13\SPIKE10\DEBUG\MESSAGE.OBJ|C:\USERS\BYRON\DOCUMENTS\VISUAL STUDIO 2013\PROJECTS\SPIKE 13\SPIKE10\DEBUG\MESSAGESYSTEM.OBJ|C:\USERS\BYRON\DOCUMENTS\VISUAL STUDIO 2013\PROJECTS\SPIKE 13\SPIKE10\DEBUG\PLAYER.OBJ|C:\USERS\BYRON\DOCUMENTS\VISUAL STUDIO 2013\PROJECTS\SPIKE 13\SPIKE10\DEBUG\QUITCOMMAND.OBJ|C:\USERS\BYRON\DOCUMENTS\VISUAL STUDIO 2013\PROJECTS\SPIKE 13\SPIKE10\DEBUG\SELECTADVENTURESTATE.OBJ|C:\USERS\BYRON\DOCUMENTS\VISUAL STUDIO 2013\PROJECTS\SPIKE 13\SPIKE10\DEBUG\STARTCOMMAND.OBJ|C:\USERS\BYRON\DOCUMENTS\VISUAL STUDIO 2013\PROJECTS\SPIKE 13\SPIKE10\DEBUG\STATE.OBJ|C:\USERS\BYRON\DOCUMENTS\VISUAL STUDIO 2013\PROJECTS\SPIKE 13\SPIKE10\DEBUG\STATECOMMAND.OBJ|C:\USERS\BYRON\DOCUMENTS\VISUAL STUDIO 2013\PROJECTS\SPIKE 13\SPIKE10\DEBUG\TAKECOMMAND.OBJ|C:\USERS\BYRON\DOCUMENTS\VISUAL STUDIO 2013\PROJECTS\SPIKE 13\SPIKE10\DEBUG\WEAPONCOMPONENT.OBJ
C:\PROGRAM FILES (X86)\WINDOWS KITS\8.1\LIB\WINV6.3\UM\X86\KERNEL32.LIB
C:\PROGRAM FILES (X86)\WINDOWS KITS\8.1\LIB\WINV6.3\UM\X86\USER32.LIB
C:\PROGRAM FILES (X86)\WINDOWS KITS\8.1\LIB\WINV6.3\UM\X86\GDI32.LIB
C:\PROGRAM FILES (X86)\WINDOWS KITS\8.1\LIB\WINV6.3\UM\X86\WINSPOOL.LIB
C:\PROGRAM FILES (X86)\WINDOWS KITS\8.1\LIB\WINV6.3\UM\X86\COMDLG32.LIB
C:\PROGRAM FILES (X86)\WINDOWS KITS\8.1\LIB\WINV6.3\UM\X86\ADVAPI32.LIB
C:\PROGRAM FILES (X86)\WINDOWS KITS\8.1\LIB\WINV6.3\UM\X86\SHELL32.LIB
C:\PROGRAM FILES (X86)\WINDOWS KITS\8.1\LIB\WINV6.3\UM\X86\OLE32.LIB
C:\PROGRAM FILES (X86)\WINDOWS KITS\8.1\LIB\WINV6.3\UM\X86\OLEAUT32.LIB
C:\PROGRAM FILES (X86)\WINDOWS KITS\8.1\LIB\WINV6.3\UM\X86\UUID.LIB
C:\PROGRAM FILES (X86)\WINDOWS KITS\8.1\LIB\WINV6.3\UM\X86\ODBC32.LIB
C:\PROGRAM FILES (X86)\WINDOWS KITS\8.1\LIB\WINV6.3\UM\X86\ODBCCP32.LIB
C:\USERS\BYRON\DOCUMENTS\VISUAL STUDIO 2013\PROJECTS\SPIKE 13\SPIKE10\DEBUG\BLACKBOARD.OBJ
C:\USERS\BYRON\DOCUMENTS\VISUAL STUDIO 2013\PROJECTS\SPIKE 13\SPIKE10\DEBUG\CARRYCOMPONENT.OBJ
C:\USERS\BYRON\DOCUMENTS\VISUAL STUDIO 2013\PROJECTS\SPIKE 13\SPIKE10\DEBUG\COMMAND.OBJ
C:\USERS\BYRON\DOCUMENTS\VISUAL STUDIO 2013\PROJECTS\SPIKE 13\SPIKE10\DEBUG\COMMANDPROCESSOR.OBJ
C:\USERS\BYRON\DOCUMENTS\VISUAL STUDIO 2013\PROJECTS\SPIKE 13\SPIKE10\DEBUG\COMPONENT.OBJ
C:\USERS\BYRON\DOCUMENTS\VISUAL STUDIO 2013\PROJECTS\SPIKE 13\SPIKE10\DEBUG\COMPONENTLOADER.OBJ
C:\USERS\BYRON\DOCUMENTS\VISUAL STUDIO 2013\PROJECTS\SPIKE 13\SPIKE10\DEBUG\CONTEXTCONTROLLER.OBJ
C:\USERS\BYRON\DOCUMENTS\VISUAL STUDIO 2013\PROJECTS\SPIKE 13\SPIKE10\DEBUG\EDGE.OBJ
C:\USERS\BYRON\DOCUMENTS\VISUAL STUDIO 2013\PROJECTS\SPIKE 13\SPIKE10\DEBUG\ENTITY.OBJ
C:\USERS\BYRON\DOCUMENTS\VISUAL STUDIO 2013\PROJECTS\SPIKE 13\SPIKE10\DEBUG\FAILEDCOMMAND.OBJ
C:\USERS\BYRON\DOCUMENTS\VISUAL STUDIO 2013\PROJECTS\SPIKE 13\SPIKE10\DEBUG\GAMEDATA.OBJ
C:\USERS\BYRON\DOCUMENTS\VISUAL STUDIO 2013\PROJECTS\SPIKE 13\SPIKE10\DEBUG\GAMEMAIN.OBJ
C:\USERS\BYRON\DOCUMENTS\VISUAL STUDIO 2013\PROJECTS\SPIKE 13\SPIKE10\DEBUG\GAMEPLAYSTATE.OBJ
C:\USERS\BYRON\DOCUMENTS\VISUAL STUDIO 2013\PROJECTS\SPIKE 13\SPIKE10\DEBUG\GOCOMMAND.OBJ
C:\USERS\BYRON\DOCUMENTS\VISUAL STUDIO 2013\PROJECTS\SPIKE 13\SPIKE10\DEBUG\HIGHSCORESTATE.OBJ
C:\USERS\BYRON\DOCUMENTS\VISUAL STUDIO 2013\PROJECTS\SPIKE 13\SPIKE10\DEBUG\INFORMATIONSTATE.OBJ
C:\USERS\BYRON\DOCUMENTS\VISUAL STUDIO 2013\PROJECTS\SPIKE 13\SPIKE10\DEBUG\INVENTORYCOMPONENT.OBJ
C:\USERS\BYRON\DOCUMENTS\VISUAL STUDIO 2013\PROJECTS\SPIKE 13\SPIKE10\DEBUG\IOBJECT.OBJ
C:\USERS\BYRON\DOCUMENTS\VISUAL STUDIO 2013\PROJECTS\SPIKE 13\SPIKE10\DEBUG\LOADER.OBJ
C:\USERS\BYRON\DOCUMENTS\VISUAL STUDIO 2013\PROJECTS\SPIKE 13\SPIKE10\DEBUG\LOCATION.OBJ
C:\USERS\BYRON\DOCUMENTS\VISUAL STUDIO 2013\PROJECTS\SPIKE 13\SPIKE10\DEBUG\LOCKCOMPONENT.OBJ
C:\USERS\BYRON\DOCUMENTS\VISUAL STUDIO 2013\PROJECTS\SPIKE 13\SPIKE10\DEBUG\LOOKCOMMAND.OBJ
C:\USERS\BYRON\DOCUMENTS\VISUAL STUDIO 2013\PROJECTS\SPIKE 13\SPIKE10\DEBUG\MAIN.OBJ
C:\USERS\BYRON\DOCUMENTS\VISUAL STUDIO 2013\PROJECTS\SPIKE 13\SPIKE10\DEBUG\MAINMENUSTATE.OBJ
C:\USERS\BYRON\DOCUMENTS\VISUAL STUDIO 2013\PROJECTS\SPIKE 13\SPIKE10\DEBUG\MESSAGE.OBJ
C:\USERS\BYRON\DOCUMENTS\VISUAL STUDIO 2013\PROJECTS\SPIKE 13\SPIKE10\DEBUG\MESSAGESYSTEM.OBJ
C:\USERS\BYRON\DOCUMENTS\VISUAL STUDIO 2013\PROJECTS\SPIKE 13\SPIKE10\DEBUG\PLAYER.OBJ
C:\USERS\BYRON\DOCUMENTS\VISUAL STUDIO 2013\PROJECTS\SPIKE 13\SPIKE10\DEBUG\QUITCOMMAND.OBJ
C:\USERS\BYRON\DOCUMENTS\VISUAL STUDIO 2013\PROJECTS\SPIKE 13\SPIKE10\DEBUG\SELECTADVENTURESTATE.OBJ
C:\USERS\BYRON\DOCUMENTS\VISUAL STUDIO 2013\PROJECTS\SPIKE 13\SPIKE10\DEBUG\STARTCOMMAND.OBJ
C:\USERS\BYRON\DOCUMENTS\VISUAL STUDIO 2013\PROJECTS\SPIKE 13\SPIKE10\DEBUG\STATE.OBJ
C:\USERS\BYRON\DOCUMENTS\VISUAL STUDIO 2013\PROJECTS\SPIKE 13\SPIKE10\DEBUG\STATECOMMAND.OBJ
C:\USERS\BYRON\DOCUMENTS\VISUAL STUDIO 2013\PROJECTS\SPIKE 13\SPIKE10\DEBUG\TAKECOMMAND.OBJ
C:\USERS\BYRON\DOCUMENTS\VISUAL STUDIO 2013\PROJECTS\SPIKE 13\SPIKE10\DEBUG\WEAPONCOMPONENT.OBJ
C:\WINDOWS\SYSTEM32\TZRES.DLL
C:\WINDOWS\GLOBALIZATION\SORTING\SORTDEFAULT.NLS
C:\PROGRAM FILES (X86)\MICROSOFT VISUAL STUDIO 12.0\VC\LIB\MSVCPRTD.LIB
C:\PROGRAM FILES (X86)\MICROSOFT VISUAL STUDIO 12.0\VC\LIB\MSVCRTD.LIB
C:\PROGRAM FILES (X86)\MICROSOFT VISUAL STUDIO 12.0\VC\LIB\OLDNAMES.LIB
